{
    "antifeatures": {
        "Ads": "Aplikasi ini berisi iklan",
        "DisabledAlgorithm": "Aplikasi ini mempunyai tanda tangan keamanan yang lemah",
        "KnownVuln": "Aplikasi ini diketahui berisi kerentanan pada keamanan",
        "NoSourceSince": "Sumber kode ini sudah tidak tersedia, tidak memungkinkan adanya pembaharuan",
        "NonFreeAdd": "Aplikasi ini mempromosikan pengaya tak-bebas",
        "NonFreeAssets": "Apl ini mengandung aset tak bebas",
        "NonFreeDep": "Aplikasi ini bergantung pada aplikasi tak bebas lainnya",
        "NonFreeNet": "Aplikasi ini mempromosikan layanan jaringan tak bebas",
        "Tracking": "Aplikasi ini melacak dan melaporkan aktivitas anda",
        "UpstreamNonFree": "Kode sumber utama tidak sepenuhnya bebas"
    },
    "index": {
        "download_fdroid": "Unduh F-Droid",
        "gpg_signature": "Tanda Tangan PGP",
        "introduction": "F-Droid adalah katalog aplikasi FOSS (Free and Open Source Software) untuk Android. Aplikasi F-Droid memudahkan mencari, memasang, dan melacak pembaruan di perangkat Anda.",
        "screenshot": "Tangkapan layar aplikasi F-Droid di Android",
        "title": "Apa itu F-Droid?"
    },
    "navigation": {
        "about": "Tentang",
        "browse": "Cari",
        "contribute": "Berkontribusi",
        "documentation": "Dokumen",
        "forum": "Forum",
        "issues": "Masalah",
        "news": "Berita"
    },
    "package": {
        "anti_features": "Anti Fitur",
        "anti_features_warning": "Aplikasi ini memiliki fitur yang anda mungkin tidak suka.",
        "author": "Pengembang",
        "build_metadata": "Metadata Build",
        "changelog": "Catatan Perubahan",
        "donate": "Donasi",
        "download": "Unduh {{ file_extension }}",
        "flattr": "Flattr",
        "gpg_signature": "Tanda Tangan PGP",
        "issue_tracker": "Pelacak Masalah",
        "liberapay": "Liberapay",
        "license": "Lisensi",
        "minimum_android_version": "Versi ini membutuhkan Android {{ android_version }} atau diatasnya.",
        "new_in_version": "Yang baru pada versi {{ latest_version }}",
        "packages": "Paket",
        "permissions": "Izin",
        "signed_by_developer": "Ini dibuat dan ditandatangani oleh pengembang asli.",
        "signed_by_fdroid": "Ini dibuat dan ditandatangani oleh F-Droid, dan dijamin sesuai dengan <a href=\"{{ source_code_url }}\">kode sumber tarball ini</a>.",
        "source_code": "Kode Sumber",
        "suggest_downloading_via_fdroid": "Meskipun pengunduhan APK tersedia, Anda harus mengetahui jika memasang seperti itu Anda tidak akan mendapat notifikasi pembaharuan dan itu merupakan cara mengunduh yang lebih tidak aman. Kami merekomendasikan untuk memasang client F-Droid dan memakainya.",
        "technical_info": "Info teknis",
        "translation": "Terjemahan",
        "version_info": "<b>Versi {{ package_version }}</b> ({{ package_version_code }}) - Ditambahkan pada {{ package_added_date }}",
        "website": "Situs Web"
    },
    "permissions": {
        "permdesc_acceptHandovers": "Mengizinkan aplikasi melanjutkan panggilan yang dimulai di aplikasi lain.",
        "permdesc_accessBackgroundLocation": "Jika aplikasi diberi izin tambahan ke akses lokasi perkiraan atau akurat, aplikasi dapat mengakses lokasi saat berjalan di latar belakang.",
        "permdesc_accessCoarseLocation": "Aplikasi ini dapat mengetahui lokasi berdasarkan sumber jaringan seperti menara seluler dan jaringan Wi-Fi, namun hanya jika aplikasi berada di latar depan. Layanan lokasi tersebut harus diaktifkan dan tersedia di ponsel agar aplikasi dapat menggunakannya.",
        "permdesc_accessDrmCertificates": "Memungkinkan aplikasi menyediakan dan menggunakan sertifikat DRM. Tidak pernah dibutuhkan untuk aplikasi normal.",
        "permdesc_accessFineLocation": "Aplikasi ini bisa mendapatkan lokasi pasti Anda ketika aplikasi berada di latar depan. Fitur layanan lokasi ini harus diaktifkan dan tersedia di ponsel agar dapat digunakan oleh aplikasi. Fitur ini dapat meningkatkan konsumsi baterai.",
        "permdesc_accessImsCallService": "Memungkinkan aplikasi menggunakan layanan IMS untuk melakukan panggilan tanpa campur tangan Anda.",
        "permdesc_accessLocationExtraCommands": "Memungkinkan aplikasi mengakses perintah penyedia lokasi ekstra. Tindakan ini memungkinkan aplikasi mengganggu pengoperasian GPS atau sumber lokasi lain.",
        "permdesc_accessNetworkConditions": "Memungkinkan aplikasi mendengar untuk observasi kondisi jaringan. Tidak pernah dibutuhkan oleh aplikasi normal.",
        "permdesc_accessNetworkState": "Memungkinkan aplikasi melihat informasi tentang sambungan jaringan, misalnya jaringan yang ada dan tersambung.",
        "permdesc_accessNotifications": "Mengizinkan aplikasi mengambil, memeriksa, dan menghapus pemberitahuan, termasuk pemberitahuan yang diposting oleh aplikasi lain.",
        "permdesc_accessWifiState": "Memungkinkan aplikasi melihat informasi tentang jaringan Wi-Fi, misalnya apakah Wi-Fi diaktifkan dan nama perangkat Wi-Fi yang tersambung.",
        "permdesc_accessWimaxState": "Memungkinkan aplikasi menentukan apakah WiMAX diaktifkan dan informasi tentang jaringan WiMAX apa saja yang tersambung.",
        "permdesc_access_notification_policy": "Mengizinkan aplikasi membaca dan menulis konfigurasi status Jangan Ganggu.",
        "permdesc_activityRecognition": "Aplikasi ini dapat mengenali aktivitas fisik Anda.",
        "permdesc_addVoicemail": "Mengizinkan apl menambahkan pesan ke kotak masuk untuk pesan suara Anda.",
        "permdesc_answerPhoneCalls": "Mengizinkan aplikasi menjawab panggilan telepon masuk.",
        "permdesc_audioWrite": "Mengizinkan aplikasi untuk memodifikasi koleksi musik Anda.",
        "permdesc_bindCarrierMessagingService": "Mengizinkan operator untuk mengikat ke antarmuka tingkat tinggi dari suatu layanan perpesanan operator. Fitur ini seharusnya tidak diperlukan oleh aplikasi normal.",
        "permdesc_bindCarrierServices": "Memungkinkan pemegang untuk mengikat ke layanan operator. Tidak pernah dibutuhkan untuk aplikasi normal.",
        "permdesc_bindConditionProviderService": "Memungkinkan pemegang mengikat antarmuka tingkat tinggi dari layanan penyedia ketentuan. Tidak pernah diperlukan oleh aplikasi normal.",
        "permdesc_bindDreamService": "Memungkinkan pemegang mengikat antarmuka tingkat tinggi dari suatu layanan lamunan. Tidak pernah diperlukan oleh aplikasi normal.",
        "permdesc_bindNotificationListenerService": "Memungkinkan pemegang mengikat antarmuka tingkat teratas dari suatu layanan pendengar pemberitahuan. Tidak pernah diperlukan oleh aplikasi normal.",
        "permdesc_bind_connection_service": "Memungkinkan aplikasi berinteraksi dengan layanan telepon untuk melakukan/menerima panggilan.",
        "permdesc_bind_incall_service": "Memungkinkan aplikasi mengontrol kapan dan bagaimana pengguna melihat layar dalam panggilan.",
        "permdesc_bluetooth": "Memungkinkan aplikasi melihat konfigurasi Bluetooth di ponsel, dan membuat serta menerima sambungan dengan perangkat yang disandingkan.",
        "permdesc_bluetoothAdmin": "Mengizinkan apl mengonfigurasi ponsel Bluetooth lokal, dan menemukan serta menyandingkan dengan perangkat jarak jauh.",
        "permdesc_bodySensors": "Mengizinkan aplikasi untuk mengakses data dari sensor yang memantau kondisi fisik Anda, seperti denyut jantung.",
        "permdesc_broadcastSticky": "Memungkinkan aplikasi mengirim siaran permanen, yang tetap ada setelah siaran berakhir. Penggunaan yang berlebihan dapat membuat ponsel menjadi lambat atau tidak stabil dengan memicu penggunaan memori yang terlalu banyak.",
        "permdesc_callCompanionApp": "Memungkinkan aplikasi melihat dan mengontrol panggilan telepon yg sedang berlangsung diperangkat. Ini mencakup informasi seperti nomor yg memanggil dan status panggilan.",
        "permdesc_callPhone": "Memungkinkan aplikasi menghubungi nomor telepon tanpa campur tangan Anda. Izin ini dapat mengakibatkan biaya atau panggilan tak terduga. Perhatikan bahwa izin ini tidak memungkinkan aplikasi menghubungi nomor darurat. Aplikasi berbahaya dapat menyebabkan Anda dikenakan biaya dengan melakukan panggilan tanpa konfirmasi Anda.",
        "permdesc_camera": "Aplikasi ini dapat mengambil foto dan merekam video menggunakan kamera kapan saja.",
        "permdesc_changeNetworkState": "Mengizinkan apl mengubah keadaan konektivitas jaringan.",
        "permdesc_changeTetherState": "Mengizinkan apl mengubah status konektivitas jaringan yang tertambat.",
        "permdesc_changeWifiMulticastState": "Memungkinkan aplikasi menerima paket yang dikirim ke semua perangkat melalui jaringan Wi-Fi menggunakan alamat multicast, bukan hanya ponsel Anda. Izin ini akan menggunakan lebih banyak daya daripada mode selain multicast.",
        "permdesc_changeWifiState": "Memungkinkan aplikasi menyambung ke dan memutus dari titik akses Wi-Fi, dan mengubah konfigurasi perangkat untuk jaringan Wi-Fi.",
        "permdesc_changeWimaxState": "Memungkinkan aplikasi menyambungkan ponsel ke dan memutus ponsel dari jaringan WiMAX.",
        "permdesc_connection_manager": "Mengizinkan aplikasi untuk mengelola sambungan telekomunikasi.",
        "permdesc_control_incall_experience": "Memungkinkan aplikasi memberikan pengalaman pengguna dalam panggilan.",
        "permdesc_createNetworkSockets": "Memungkinkan aplikasi membuat soket jaringan dan menggunakan protokol jaringan khusus. Browser dan aplikasi lain menyediakan sarana untuk mengirim data ke internet sehingga izin ini tidak diperlukan untuk mengirim data ke internet.",
        "permdesc_disableKeyguard": "Memungkinkan aplikasi menonaktifkan kunci tombol dan keamanan sandi apa pun yang terkait. Misalnya, ponsel menonaktifkan kunci tombol saat menerima panggilan telepon masuk, kemudian mengaktifkan kembali kunci tombol ketika panggilan selesai.",
        "permdesc_enableCarMode": "Mengizinkan apl mengaktifkan mode mobil.",
        "permdesc_expandStatusBar": "Mengizinkan apl memperluas atau menciutkan bilah status.",
        "permdesc_foregroundService": "Mengizinkan aplikasi menggunakan layanan di latar depan.",
        "permdesc_getAccounts": "Memungkinkan aplikasi mendapatkan daftar akun yang dikenal oleh ponsel. Ini mungkin termasuk akun yang dibuat oleh aplikasi yang telah Anda instal.",
        "permdesc_getPackageSize": "Mengizinkan apl mengambil kode, data, dan ukuran temboloknya",
        "permdesc_getTasks": "Memungkinkan aplikasi mengambil informasi tentang tugas yang dijalankan saat ini dan baru-baru ini. Izin ini memungkinkan aplikasi menemukan informasi tentang aplikasi mana yang digunakan pada perangkat.",
        "permdesc_handoverStatus": "Memungkinkan aplikasi ini menerima informasi tentang transfer Android Beam saat ini",
        "permdesc_imagesWrite": "Mengizinkan aplikasi untuk memodifikasi koleksi foto Anda.",
        "permdesc_install_shortcut": "Mengizinkan aplikasi menambahkan pintasan Layar Utama tanpa tindakan dari pengguna.",
        "permdesc_invokeCarrierSetup": "Memungkinkan pemegang meminta aplikasi konfigurasi yang disediakan operator. Tidak pernah diperlukan aplikasi normal.",
        "permdesc_killBackgroundProcesses": "Memungkinkan aplikasi mengakhiri proses latar belakang aplikasi lain. Izin ini dapat menyebabkan aplikasi lain berhenti berjalan.",
        "permdesc_manageFace": "Mengizinkan apl memicu metode untuk menambah & menghapus templat wajah untuk digunakan.",
        "permdesc_manageFingerprint": "Mengizinkan aplikasi memanggil metode untuk menambahkan dan menghapus template sidik jari untuk digunakan.",
        "permdesc_manageNetworkPolicy": "Mengizinkan apl mengelola kebijakan jaringan dan menentukan peraturan khusus apl.",
        "permdesc_manageOwnCalls": "Mengizinkan aplikasi menyambungkan panggilan telepon melalui sistem untuk menyempurnakan pengalaman menelepon.",
        "permdesc_manageProfileAndDeviceOwners": "Mengizinkan aplikasi menyetel pemilik profil dan pemilik perangkat",
        "permdesc_mediaLocation": "Mengizinkan apl untuk membaca lokasi dari koleksi media Anda.",
        "permdesc_modifyAudioSettings": "Memungkinkan aplikasi mengubah setelan audio global, misalnya volume dan pengeras suara mana yang digunakan untuk keluaran.",
        "permdesc_modifyNetworkAccounting": "Mengizinkan apl memodifikasi cara penggunaan jaringan diperhitungkan terhadap apl. Tidak untuk digunakan oleh apl normal.",
        "permdesc_nfc": "Mengizinkan apl berkomunikasi dengan tag, kartu, dan alat pembaca Komunikasi Nirkabel Jarak Dekat (NFC).",
        "permdesc_persistentActivity": "Memungkinkan aplikasi membuat bagian dari dirinya sendiri terus-menerus berada dalam memori. Izin ini dapat membatasi memori yang tersedia untuk aplikasi lain sehingga menjadikan ponsel lambat.",
        "permdesc_processOutgoingCalls": "Memungkinkan aplikasi melihat nomor yang dihubungi saat melakukan panggilan keluar dengan opsi untuk mengalihkan panggilan ke nomor lain atau membatalkan panggilan sepenuhnya.",
        "permdesc_readCalendar": "Aplikasi ini dapat membaca semua acara kalender yang tersimpan di ponsel dan membagikan atau menyimpan data kalender.",
        "permdesc_readCallLog": "Aplikasi ini dapat membaca histori panggilan.",
        "permdesc_readCellBroadcasts": "Mengizinkan aplikasi membaca pesan siaran seluler yang diterima perangkat Anda. Notifikasi siaran seluler dikirimkan di beberapa lokasi untuk memperingatkan Anda tentang situasi darurat. Aplikasi berbahaya dapat mengganggu kinerja atau operasi perangkat Anda saat siaran seluler darurat diterima.",
        "permdesc_readContacts": "Memungkinkan aplikasi membaca data tentang kontak yang disimpan pada ponsel Anda, termasuk frekuensi Anda dalam melakukan panggilan, mengirim email, atau berkomunikasi dengan cara lain dengan individu tertentu. Izin ini memungkinkan aplikasi menyimpan data kontak, dan aplikasi berbahaya dapat berbagi data kontak tanpa sepengetahuan Anda.",
        "permdesc_readHistoryBookmarks": "Memungkinkan aplikasi membaca histori semua URL yang telah dikunjungi Browser, dan semua bookmark Browser. Catatan: izin ini tidak dapat diberlakukan oleh browser pihak ketiga atau aplikasi lain dengan kemampuan menjelajahi web.",
        "permdesc_readInstallSessions": "Memungkinkan aplikasi membaca sesi pemasangan. Tindakan ini memungkinkannya melihat detail tentang pemasangan paket aktif.",
        "permdesc_readNetworkUsageHistory": "Mengizinkan apl membaca penggunaan jaringan historis untuk apl dan jaringan tertentu.",
        "permdesc_readPhoneNumbers": "Mengizinkan aplikasi mengakses nomor telepon perangkat.",
        "permdesc_readPhoneState": "Memungkinkan aplikasi mengakses fitur telepon perangkat. Izin ini memungkinkan aplikasi menentukan nomor telepon dan ID perangkat, apakah suatu panggilan aktif atau tidak, dan nomor jarak jauh yang tersambung oleh sebuah panggilan.",
        "permdesc_readSms": "Aplikasi ini dapat membaca semua SMS yang tersimpan di ponsel.",
        "permdesc_readSyncSettings": "Memungkinkan aplikasi membaca setelan sinkronisasi untuk sebuah akun. Misalnya, izin ini dapat menentukan apakah aplikasi Orang disinkronkan dengan sebuah akun.",
        "permdesc_readSyncStats": "Memungkinkan aplikasi membaca statistik sinkronisasi untuk sebuah akun, termasuk histori kejadian sinkronisasi dan berapa banyak data yang disinkronkan.",
        "permdesc_receiveBootCompleted": "Mengizinkan apl memulai sendiri segera setelah sistem selesai booting. Hal ini dapat memperpanjang waktu yang diperlukan untuk memulai ponsel dan memungkinkan apl memperlambat ponsel secara keseluruhan jika terus berjalan.",
        "permdesc_receiveMms": "Memungkinkan aplikasi menerima dan memproses pesan MMS. Ini artinya aplikasi dapat memantau atau menghapus pesan yang dikirim ke perangkat Anda tanpa menunjukkannya kepada Anda.",
        "permdesc_receiveSms": "Memungkinkan aplikasi menerima dan memproses pesan SMS. Ini artinya aplikasi dapat memantau atau menghapus pesan yang dikirim ke perangkat Anda tanpa menunjukkannya kepada Anda.",
        "permdesc_receiveWapPush": "Memungkinkan aplikasi menerima dan memproses pesan WAP. Izin ini mencakup kemampuan untuk memantau atau menghapus pesan yang dikirim kepada Anda tanpa menunjukkannya kepada Anda.",
        "permdesc_recordAudio": "Aplikasi ini dapat merekam audio menggunakan mikrofon kapan saja.",
        "permdesc_register_call_provider": "Izinkan aplikasi untuk mendaftarkan sambungan telekomunikasi baru.",
        "permdesc_register_sim_subscription": "Izinkan aplikasi untuk mendaftarkan sambungan SIM telekomunikasi baru.",
        "permdesc_removeDrmCertificates": "Memungkinkan aplikasi membuang sertifikat DRM. Tidak pernah dibutuhkan untuk aplikasi normal.",
        "permdesc_reorderTasks": "Memungkinkan aplikasi memindah tugas ke latar depan dan latar belakang. Aplikasi dapat melakukannya tanpa masukan dari Anda.",
        "permdesc_requestDeletePackages": "Mengizinkan aplikasi meminta penghapusan paket.",
        "permdesc_requestIgnoreBatteryOptimizations": "Mengizinkan aplikasi meminta izin untuk mengabaikan pengoptimalan baterai bagi aplikasi tersebut.",
        "permdesc_requestInstallPackages": "Mengizinkan aplikasi meminta pemasangan paket.",
        "permdesc_requestPasswordComplexity": "Mengizinkan aplikasi mempelajari tingkat kompleksitas kunci layar (tinggi, sedang, rendah, atau tidak ada), yang menunjukkan kemungkinan rentang durasi dan jenis kunci layar. Aplikasi juga dapat menyarankan agar pengguna memperbarui kunci layar ke tingkat tertentu, namun pengguna dapat mengabaikan dan keluar dengan bebas. Perhatikan bahwa kunci layar tidak disimpan dalam teks biasa, sehingga aplikasi tidak mengetahui sandi yang sebenarnya.",
        "permdesc_route_media_output": "Memungkinkan aplikasi menentukan rute keluaran media ke perangkat eksternal lainnya.",
        "permdesc_runInBackground": "Aplikasi ini dapat berjalan di latar belakang. Dapat menghabiskan baterai lebih cepat.",
        "permdesc_sdcardRead": "Mengizinkan aplikasi membaca konten penyimpanan bersama Anda.",
        "permdesc_sdcardWrite": "Mengizinkan aplikasi menulis konten penyimpanan bersama Anda.",
        "permdesc_sendSms": "Memungkinkan aplikasi mengirim pesan SMS. Izin ini dapat mengakibatkan biaya tak terduga. Aplikasi berbahaya dapat membebankan biaya kepada Anda dengan mengirim pesan tanpa konfirmasi dari Anda.",
        "permdesc_setAlarm": "Mengizinkan apl menyetel alarm di apl jam alarm yang terpasang. Beberapa apl jam alarm mungkin tidak menerapkan fitur ini.",
        "permdesc_setInputCalibration": "Memungkinkan aplikasi mengubah parameter kalibrasi layar sentuh. Tidak diperlukan oleh aplikasi normal.",
        "permdesc_setTimeZone": "Mengizinkan apl mengubah zona waktu pada ponsel.",
        "permdesc_setWallpaper": "Mengizinkan apl menyetel wallpaper sistem.",
        "permdesc_setWallpaperHints": "Mengizinkan apl menyetel petunjuk ukuran wallpaper sistem.",
        "permdesc_sim_communication": "Mengizinkan aplikasi mengirim perintah ke SIM. Ini sangat berbahaya.",
        "permdesc_startViewPermissionUsage": "Memungkinkan pemegang memulai penggunaan izin untuk aplikasi. Tidak diperlukan untuk aplikasi normal.",
        "permdesc_statusBar": "Mengizinkan apl menonaktifkan bilah status atau menambah dan menghapus ikon sistem.",
        "permdesc_statusBarService": "Mengizinkan apl menjadi bilah status.",
        "permdesc_subscribedFeedsRead": "Mengizinkan apl mendapatkan detail tentang feed yang saat ini sedang disinkronkan.",
        "permdesc_systemAlertWindow": "Aplikasi ini dapat muncul di atas aplikasi lain atau bagian lain pada layar. Ini dapat mengganggu penggunaan aplikasi biasa dan mengubah kemunculan aplikasi lainnya.",
        "permdesc_transmitIr": "Memungkinkan aplikasi menggunakan pemancar inframerah ponsel.",
        "permdesc_uninstall_shortcut": "Mengizinkan aplikasi menghapus pintasan Layar Utama tanpa tindakan dari pengguna.",
        "permdesc_useBiometric": "Mengizinkan aplikasi menggunakan hardware biometrik untuk autentikasi",
        "permdesc_useDataInBackground": "Aplikasi ini dapat menggunakan data di latar belakang. Dapat meningkatkan penggunaan data.",
        "permdesc_useFaceAuthentication": "Mengizinkan aplikasi untuk menggunakan perangkat keras autentikasi wajah untuk autentikasi",
        "permdesc_useFingerprint": "Mengizinkan aplikasi untuk menggunakan hardware sidik jari untuk otentikasi",
        "permdesc_use_sip": "Izinkan aplikasi melakukan dan menerima panggilan SIP.",
        "permdesc_vibrate": "Mengizinkan aplikasi untuk mengendalikan vibrator.",
        "permdesc_videoWrite": "Mengizinkan aplikasi untuk memodifikasi koleksi video Anda.",
        "permdesc_wakeLock": "Mengizinkan apl mencegah ponsel tidur.",
        "permdesc_writeCalendar": "Aplikasi ini dapat menambahkan, menghapus, atau mengubah acara kalender di ponsel. Aplikasi ini dapat mengirim pesan yang kelihatannya berasal dari pemilik kalender, atau mengubah acara tanpa memberi tahu pemilik.",
        "permdesc_writeCallLog": "Memungkinkan apl memodifikasi log panggilan ponsel Anda, termasuk data tentang panggilan masuk dan keluar. Apl berbahaya dapat menggunakan ini untuk menghapus atau memodifikasi log panggilan Anda.",
        "permdesc_writeContacts": "Memungkinkan aplikasi mengubah data tentang kontak yang tersimpan dalam ponsel Anda, termasuk frekuensi Anda dalam melakukan panggilan, mengirim email, atau berkomunikasi dalam cara lain dengan kontak tertentu. Izin ini memungkinkan aplikasi menghapus data kontak.",
        "permdesc_writeGeolocationPermissions": "Mengizinkan apl memodifikasi izin geolokasi Browser. Apl berbahaya dapat menggunakan izin ini untuk memungkinkan pengiriman informasi lokasi ke sembarang situs web.",
        "permdesc_writeHistoryBookmarks": "Memungkinkan aplikasi mengubah histori atau bookmark Browser yang tersimpan dalam ponsel Anda. Izin ini memungkinkan aplikasi menghapus atau mengubah data Browser. Catatan: izin ini tidak dapat diberlakukan oleh browser pihak ketiga atau aplikasi lain dengan kemampuan menjelajahi web.",
        "permdesc_writeSettings": "Mengizinkan apl memodifikasi data setelan sistem. Apl berbahaya dapat merusak konfigurasi sistem anda.",
        "permdesc_writeSyncSettings": "Memungkinkan aplikasi mengubah setelan sinkronisasi untuk sebuah akun. Misalnya, izin ini dapat digunakan untuk mengaktifkan sinkronisasi dari aplikasi Orang dengan sebuah akun.",
        "permgroupbackgroundrequest_location": "Izinkan <b>",
        "permgroupbackgroundrequestdetail_location": "Saat ini aplikasi hanya dapat mengakses lokasi selagi Anda menggunakan aplikasi tersebut",
        "permgroupdesc_activityRecognition": "mengakses aktivitas fisik Anda",
        "permgroupdesc_calendar": "mengakses kalender",
        "permgroupdesc_calllog": "membaca dan menulis log panggilan telepon",
        "permgroupdesc_camera": "mengambil gambar dan merekam video",
        "permgroupdesc_contacts": "mengakses kontak",
        "permgroupdesc_location": "mengakses lokasi perangkat ini",
        "permgroupdesc_microphone": "merekam audio",
        "permgroupdesc_phone": "melakukan dan mengelola panggilan telepon",
        "permgroupdesc_sensors": "mengakses data sensor tentang tanda-tanda vital",
        "permgroupdesc_sms": "mengirim dan melihat pesan SMS",
        "permgroupdesc_storage": "mengakses foto, media, dan file di perangkat",
        "permgrouplab_activityRecognition": "Aktivitas fisik",
        "permgrouplab_calendar": "Kalender",
        "permgrouplab_calllog": "Log panggilan",
        "permgrouplab_camera": "Kamera",
        "permgrouplab_contacts": "Kontak",
        "permgrouplab_location": "Lokasi",
        "permgrouplab_microphone": "Mikrofon",
        "permgrouplab_phone": "Telepon",
        "permgrouplab_sensors": "Sensor tubuh",
        "permgrouplab_sms": "SMS",
        "permgrouplab_storage": "Penyimpanan",
        "permgrouprequest_activityRecognition": "Izinkan <b>",
        "permgrouprequest_calendar": "Izinkan <b>",
        "permgrouprequest_calllog": "Izinkan <b>",
        "permgrouprequest_camera": "Izinkan <b>",
        "permgrouprequest_contacts": "Izinkan <b>",
        "permgrouprequest_location": "Izinkan <b>",
        "permgrouprequest_microphone": "Izinkan <b>",
        "permgrouprequest_phone": "Izinkan <b>",
        "permgrouprequest_sensors": "Izinkan <b>",
        "permgrouprequest_sms": "Izinkan <b>",
        "permgrouprequest_storage": "Izinkan <b>",
        "permgrouprequestdetail_location": "Aplikasi ini hanya akan memiliki akses ke lokasi selagi Anda menggunakan aplikasi",
        "permlab_acceptHandover": "lanjutkan panggilan dari aplikasi lain",
        "permlab_accessBackgroundLocation": "akses lokasi di latar belakang",
        "permlab_accessCoarseLocation": "akses perkiraan lokasi (berbasis jaringan) hanya di latar depan",
        "permlab_accessDrmCertificates": "mengakses sertifikat DRM",
        "permlab_accessFineLocation": "akses lokasi pasti hanya saat di latar depan",
        "permlab_accessImsCallService": "akses layanan panggilan IMS",
        "permlab_accessLocationExtraCommands": "akses perintah penyedia lokasi ekstra",
        "permlab_accessNetworkConditions": "mendengar untuk observasi kondisi jaringan",
        "permlab_accessNetworkState": "lihat sambungan jaringan",
        "permlab_accessNotifications": "mengakses pemberitahuan",
        "permlab_accessWifiState": "lihat sambungan Wi-Fi",
        "permlab_accessWimaxState": "sambungkan dan putuskan dari WiMAX",
        "permlab_access_notification_policy": "Akses status Jangan Ganggu",
        "permlab_activityRecognition": "kenali aktivitas fisik",
        "permlab_addVoicemail": "tambahkan kotak pesan",
        "permlab_answerPhoneCalls": "jawab panggilan telepon",
        "permlab_audioWrite": "memodifikasi koleksi musik Anda",
        "permlab_bindCarrierMessagingService": "ikat ke layanan perpesanan operator",
        "permlab_bindCarrierServices": "mengikat ke layanan operator",
        "permlab_bindConditionProviderService": "mengikat ke layanan penyedia ketentuan",
        "permlab_bindDreamService": "mengikat ke layanan lamunan",
        "permlab_bindNotificationListenerService": "mengikat layanan pendengar pemberitahuan",
        "permlab_bind_connection_service": "berinteraksi dengan layanan telepon",
        "permlab_bind_incall_service": "berinteraksi dengan layar dalam panggilan",
        "permlab_bluetooth": "sandingkan dengan perangkat Bluetooth",
        "permlab_bluetoothAdmin": "akses setelan Bluetooth",
        "permlab_bodySensors": "akses sensor tubuh (misalnya, monitor detak jantung)",
        "permlab_broadcastSticky": "kirim siaran memikat",
        "permlab_callCompanionApp": "melihat dan mengontrol panggilan melalui sistem.",
        "permlab_callPhone": "panggil nomor telepon secara langsung",
        "permlab_camera": "ambil gambar dan video",
        "permlab_changeNetworkState": "ubah konektivitas jaringan",
        "permlab_changeTetherState": "mengubah konektivitas yang tertambat",
        "permlab_changeWifiMulticastState": "Izinkan penerimaan Wi-Fi Multicast",
        "permlab_changeWifiState": "sambung dan putuskan Wi-Fi",
        "permlab_changeWimaxState": "Ganti status WiMAX",
        "permlab_connection_manager": "kelola sambungan telekomunikasi",
        "permlab_control_incall_experience": "memberikan pengalaman pengguna dalam panggilan",
        "permlab_createNetworkSockets": "dapatkan akses jaringan penuh",
        "permlab_disableKeyguard": "nonaktifkan kunci layar Anda",
        "permlab_enableCarMode": "aktifkan mode mobil",
        "permlab_expandStatusBar": "luaskan/ciutkan bilah status",
        "permlab_foregroundService": "jalankan layanan di latar depan",
        "permlab_getAccounts": "cari akun pada perangkat",
        "permlab_getPackageSize": "mengukur ruang penyimpanan apl",
        "permlab_getTasks": "mengambil apl yang berjalan",
        "permlab_handoverStatus": "terima status transfer Android Beam",
        "permlab_imagesWrite": "memodifikasi koleksi foto Anda",
        "permlab_install_shortcut": "memasang pintasan",
        "permlab_invokeCarrierSetup": "memanggil aplikasi konfigurasi yang disediakan operator",
        "permlab_killBackgroundProcesses": "tutup aplikasi lainnya",
        "permlab_manageFace": "kelola perangkat keras autentikasi wajah",
        "permlab_manageFingerprint": "kelola hardware sidik jari",
        "permlab_manageNetworkPolicy": "kelola kebijakan jaringan",
        "permlab_manageOwnCalls": "sambungkan panggilan telepon melalui sistem",
        "permlab_manageProfileAndDeviceOwners": "kelola pemilik profil dan perangkat",
        "permlab_mediaLocation": "membaca lokasi dari koleksi media Anda",
        "permlab_modifyAudioSettings": "ubah setelan audio Anda",
        "permlab_modifyNetworkAccounting": "mengubah penghitungan penggunaan jaringan",
        "permlab_nfc": "kontrol NFC",
        "permlab_persistentActivity": "membuat apl selalu berjalan",
        "permlab_processOutgoingCalls": "ubah rute panggilan keluar",
        "permlab_readCalendar": "Baca acara kalender dan detailnya",
        "permlab_readCallLog": "membaca log panggilan",
        "permlab_readCellBroadcasts": "membaca pesan siaran seluler",
        "permlab_readContacts": "baca kontak Anda",
        "permlab_readHistoryBookmarks": "baca histori dan bookmark web Anda",
        "permlab_readInstallSessions": "baca sesi pemasangan",
        "permlab_readNetworkUsageHistory": "baca histori penggunaan jaringan",
        "permlab_readPhoneNumbers": "membaca nomor telepon",
        "permlab_readPhoneState": "baca identitas dan status ponsel",
        "permlab_readSms": "membaca pesan teks (SMS atau MMS) Anda",
        "permlab_readSyncSettings": "baca setelan sinkron",
        "permlab_readSyncStats": "statistika baca sinkron",
        "permlab_receiveBootCompleted": "dijalankan saat dimulai",
        "permlab_receiveMms": "terima pesan teks (MMS)",
        "permlab_receiveSms": "terima pesan teks (SMS)",
        "permlab_receiveWapPush": "terima pesan teks (WAP)",
        "permlab_recordAudio": "rekam audio",
        "permlab_register_call_provider": "daftarkan sambungan telekomunikasi baru",
        "permlab_register_sim_subscription": "daftarkan sambungan SIM telekomunikasi baru",
        "permlab_removeDrmCertificates": "membuang serifikat DRM",
        "permlab_reorderTasks": "menyusun ulang apl yang berjalan",
        "permlab_requestDeletePackages": "meminta menghapus paket",
        "permlab_requestIgnoreBatteryOptimizations": "meminta mengabaikan pengoptimalan baterai",
        "permlab_requestInstallPackages": "minta instal paket",
        "permlab_requestPasswordComplexity": "meminta kompleksitas kunci layar",
        "permlab_route_media_output": "tentukan rute keluaran media",
        "permlab_runInBackground": "jalankan di latar belakang",
        "permlab_sdcardRead": "membaca konten penyimpanan bersama Anda",
        "permlab_sdcardWrite": "memodifikasi atau menghapus konten penyimpanan bersama Anda",
        "permlab_sendSms": "mengirim dan melihat pesan SMS",
        "permlab_setAlarm": "setel alarm",
        "permlab_setInputCalibration": "mengubah kalibrasi perangkat masukan",
        "permlab_setTimeZone": "atur zona waktu",
        "permlab_setWallpaper": "atur wallpaper",
        "permlab_setWallpaperHints": "sesuaikan ukuran wallpaper Anda",
        "permlab_sim_communication": "kirimkan perintah ke SIM",
        "permlab_startViewPermissionUsage": "mulai melihat penggunaan izin",
        "permlab_statusBar": "nonaktifkan atau ubah bilah status",
        "permlab_statusBarService": "jadikan bilah status",
        "permlab_subscribedFeedsRead": "baca feed langganan",
        "permlab_systemAlertWindow": "Aplikasi ini dapat muncul di atas aplikasi lain",
        "permlab_transmitIr": "pancarkan inframerah",
        "permlab_uninstall_shortcut": "meng-uninstal pintasan",
        "permlab_useBiometric": "gunakan hardware biometrik",
        "permlab_useDataInBackground": "gunakan data di latar belakang",
        "permlab_useFaceAuthentication": "gunakan perangkat keras autentikasi wajah",
        "permlab_useFingerprint": "gunakan hardware sidik jari",
        "permlab_use_sip": "lakukan/terima panggilan SIP",
        "permlab_vibrate": "kontrol getaran",
        "permlab_videoWrite": "memodifikasi koleksi video Anda",
        "permlab_wakeLock": "mencegah ponsel menjadi tidak aktif",
        "permlab_writeCalendar": "menambah atau mengubah acara kalender dan mengirim email kepada tamu tanpa sepengetahuan pemilik",
        "permlab_writeCallLog": "menulis log panggilan",
        "permlab_writeContacts": "ubah kontak Anda",
        "permlab_writeGeolocationPermissions": "memodifikasi izin geolokasi Browser",
        "permlab_writeHistoryBookmarks": "tulis histori dan bookmark web",
        "permlab_writeSettings": "ubah setelan sistem",
        "permlab_writeSyncSettings": "nyalakan dan matikan sinkronisasi"
    },
    "sidebars": {
        "donate": {
            "bank_transfer_name": "Nama",
            "bitcoin_alt": "Donasi dengan Bitcoin",
            "flattr_alt": "Donasi dengan Flattr",
            "heading": "Donasi",
            "hellotux": "👕 kaos 👕 dari",
            "hellotux_alt": "HELLOTUX",
            "hellotux_donation": "F-Droid akan mendapatkan 3€ untuk setiap baju yang terjual.",
            "liberapay_alt": "Donasi dengan Liberapay",
            "litecoin_alt": "Donasi dengan Litecoin",
            "paypal_alt": "Donasi dengan PayPal",
            "powered_by_donations": "F-Droid ditenagai oleh donasi Anda!",
            "via_bank_transfer": "Transfer Bank"
        },
        "lang": {
            "change": "Ubah"
        },
        "last_updated": {
            "heading": "Pembaruan Terakhir"
        },
        "latest_packages": {
            "heading": "Aplikasi Terbaru"
        },
        "news": {
            "heading": "Berita"
        },
        "search": {
            "heading": "Cari Aplikasi",
            "noscript": "Membutuhkan JavaScript untuk diaktifkan",
            "search": "Cari"
        }
    }
}
